adv_wrangling_1 – COMP/STAT212 Portfolio
…
View Source

Chapter 12: Logical Vectors

Code
library(tidyverse)
library(nycflights13)

Basic Comparisons

Code
flights |>
  filter(dep_time > 600 & dep_time < 2000 & abs(arr_delay) < 20)

# A tibble: 172,286 × 19
    year month   day dep_time sched_dep_time dep_delay arr_time sched_arr_time
   <int> <int> <int>    <int>          <int>     <dbl>    <int>          <int>
 1  2013     1     1      601            600         1      844            850
 2  2013     1     1      602            610        -8      812            820
 3  2013     1     1      602            605        -3      821            805
 4  2013     1     1      606            610        -4      858            910
 5  2013     1     1      606            610        -4      837            845
 6  2013     1     1      607            607         0      858            915
 7  2013     1     1      611            600        11      945            931
 8  2013     1     1      613            610         3      925            921
 9  2013     1     1      615            615         0      833            842
10  2013     1     1      622            630        -8     1017           1014
# ℹ 172,276 more rows
# ℹ 11 more variables: arr_delay <dbl>, carrier <chr>, flight <int>,
#   tailnum <chr>, origin <chr>, dest <chr>, air_time <dbl>, distance <dbl>,
#   hour <dbl>, minute <dbl>, time_hour <dttm>

Code
flights |> 
  mutate(daytime = dep_time > 600 & dep_time < 2000, 
         approx_ontime = abs(arr_delay) < 20,
         .keep = "used")

# A tibble: 336,776 × 4
   dep_time arr_delay daytime approx_ontime
      <int>     <dbl> <lgl>   <lgl>        
 1      517        11 FALSE   TRUE         
 2      533        20 FALSE   FALSE        
 3      542        33 FALSE   FALSE        
 4      544       -18 FALSE   TRUE         
 5      554       -25 FALSE   FALSE        
 6      554        12 FALSE   TRUE         
 7      555        19 FALSE   TRUE         
 8      557       -14 FALSE   TRUE         
 9      557        -8 FALSE   TRUE         
10      558         8 FALSE   TRUE         
# ℹ 336,766 more rows
…
[1] NA

When looking for NA values, use is.na().

Logical Operators

R has & and &&, as well as | and ||. Use only the single operators for data wrangling, and only the double operators for programming.

Code
flights |>
  filter(is.na(arr_delay) & !is.na(dep_delay))

# A tibble: 1,175 × 19
    year month   day dep_time sched_dep_time dep_delay arr_time sched_arr_time
   <int> <int> <int>    <int>          <int>     <dbl>    <int>          <int>
 1  2013     1     1     1525           1530        -5     1934           1805
 2  2013     1     1     1528           1459        29     2002           1647
 3  2013     1     1     1740           1745        -5     2158           2020
 4  2013     1     1     1807           1738        29     2251           2103
 5  2013     1     1     1939           1840        59       29           2151
 6  2013     1     1     1952           1930        22     2358           2207
 7  2013     1     1     2016           1930        46       NA           2220
 8  2013     1     2      905            822        43     1313           1045
 9  2013     1     2     1125            925       120     1445           1146
10  2013     1     2     1848           1840         8     2333           2151
# ℹ 1,165 more rows
# ℹ 11 more variables: arr_delay <dbl>, carrier <chr>, flight <int>,
#   tailnum <chr>, origin <chr>, dest <chr>, air_time <dbl>, distance <dbl>,
#   hour <dbl>, minute <dbl>, time_hour <dttm>

Code
flights |> 
  filter(is.na(dep_time))

# A tibble: 8,255 × 19
    year month   day dep_time sched_dep_time dep_delay arr_time sched_arr_time
   <int> <int> <int>    <int>          <int>     <dbl>    <int>          <int>
 1  2013     1     1       NA           1630        NA       NA           1815
 2  2013     1     1       NA           1935        NA       NA           2240
 3  2013     1     1       NA           1500        NA       NA           1825
 4  2013     1     1       NA            600        NA       NA            901
 5  2013     1     2       NA           1540        NA       NA           1747
 6  2013     1     2       NA           1620        NA       NA           1746
 7  2013     1     2       NA           1355        NA       NA           1459
 8  2013     1     2       NA           1420        NA       NA           1644
 9  2013     1     2       NA           1321        NA       NA           1536
10  2013     1     2       NA           1545        NA       NA           1910
# ℹ 8,245 more rows
# ℹ 11 more variables: arr_delay <dbl>, carrier <chr>, flight <int>,
#   tailnum <chr>, origin <chr>, dest <chr>, air_time <dbl>, distance <dbl>,
#   hour <dbl>, minute <dbl>, time_hour <dttm>
…
any() returns TRUE is anything in x is TRUE. all() returns TRUE if everything in x is TRUE.

We can use a subset operator to perform contradictory summaries.

Code
flights |>
  group_by(year, month, day) |>
  summarize(
    behind = mean(arr_delay[arr_delay > 0], na.rm = TRUE),
    ahead = mean(arr_delay[arr_delay < 0], na.rm = TRUE),
    n = n(),
    .groups = "drop"
  )

# A tibble: 365 × 6
    year month   day behind ahead     n
   <int> <int> <int>  <dbl> <dbl> <int>
 1  2013     1     1   32.5 -12.5   842
 2  2013     1     2   32.0 -14.3   943
 3  2013     1     3   27.7 -18.2   914
 4  2013     1     4   28.3 -17.0   915
 5  2013     1     5   22.6 -14.0   720
 6  2013     1     6   24.4 -13.6   832
 7  2013     1     7   27.8 -17.0   933
 8  2013     1     8   20.8 -14.3   899
 9  2013     1     9   25.6 -13.0   902
10  2013     1    10   27.3 -16.4   932
# ℹ 355 more rows
…
Code
flights |>
  mutate(status = case_when(
    is.na(arr_delay) ~ "cancelled",
    arr_delay < -30 ~ "very early",
    arr_delay < -15 ~ "early",
    abs(arr_delay) <= 15 ~ "on time",
    arr_delay < 60 ~ "late",
    arr_delay < Inf ~ "super late",
  ),
  .keep = "used"
         )

# A tibble: 336,776 × 2
   arr_delay status 
       <dbl> <chr>  
 1        11 on time
 2        20 late   
 3        33 late   
 4       -18 early  
 5       -25 early  
 6        12 on time
 7        19 late   
 8       -14 on time
 9        -8 on time
10         8 on time
# ℹ 336,766 more rows
…
parse number works well when the string contains non-numeric text, like dollar signs or percentages

Counting

The count() function can be used on its own to display a summary of a given column. n() must be used within another verb, like summarize().

n_distinct() counts the number of unique values.

You can perform a weighted count (adding up values within a column) with count by utilizing the ‘wt’ argument.

Code
flights |> count(tailnum, wt= distance)

# A tibble: 4,044 × 2
   tailnum      n
   <chr>    <dbl>
 1 D942DN    3418
 2 N0EGMQ  250866
 3 N10156  115966
 4 N102UW   25722
 5 N103US   24619
 6 N104UW   25157
 7 N10575  150194
 8 N105UW   23618
 9 N107US   21677
10 N108UW   32070
# ℹ 4,034 more rows
…
